### Status of run 650 at 2019-10-05 20:27:27 ###
 650: Done. Have a good day! Runtime: 86775.3/179970.0. Active evaluations: 0.
 Counted trials: 2000/2000.
 Best 3: 0.2297 0.2297 0.2297. Live: 41/T: 2000 (1712)/E: 1867 (1593).
 {'QMMLException': 221, 'TimeoutError': 67}
