### Status of run 4000 at 2020-01-06 20:47:47 ###
 4000: Done. Have a good day! Runtime: 9272.8/11970.0. Active evaluations: 0.
 Counted trials: 2000/2000.
 Best 3: 0.0880 0.0882 0.0882. Live: 31/T: 2000 (2000)/E: 1924 (1924).
