### Status of run 10000 at 2020-01-11 03:11:16 ###
 10000: Done. Have a good day! Runtime: 142035.2/269970.0. Active evaluations: 0.
 Counted trials: 2000/2000.
 Best 3: 1.7536 1.8087 1.9617. Live: 31/T: 2000 (2000)/E: 1952 (1952).
