### Status of run 160 at 2019-09-10 01:07:06 ###
 160: Done. Have a good day! Runtime: 2390.8/3570.0. Active evaluations: 0.
 Counted trials: 2000/2000.
 Best 3: 0.5665 0.5665 0.5670. Live: 41/T: 2000 (2000)/E: 1721 (1721).
