### Status of run 400 at 2019-09-28 21:55:14 ###
 400: Done. Have a good day! Runtime: 11108.4/17970.0. Active evaluations: 0.
 Counted trials: 2000/2000.
 Best 3: 0.1786 0.1865 0.1882. Live: 41/T: 2000 (2000)/E: 1651 (1651).
