### Status of run 100 at 2020-01-09 11:07:52 ###
 100: Done. Have a good day! Runtime: 119.8/1470.0. Active evaluations: 0.
 Counted trials: 2002/2000.
 Best 3: 0.6759 0.7184 0.7243. Live: 41/T: 2002 (2002)/E: 1971 (1971).
