### Status of run 1600 at 2019-06-25 16:54:15 ###
 1600: Done. Have a good day! Runtime: 18570.2/89970.0. Active evaluations: 0.
 Counted trials: 2000/2000.
 Best 3: 0.9024 1.0296 1.0612. Live: 33/T: 2000 (1999)/E: 1957 (1956).
 {'QMMLException': 1}
