### Status of run 650 at 2019-08-05 20:33:09 ###
 650: Done. Have a good day! Runtime: 2744.0/4770.0. Active evaluations: 0.
 Counted trials: 2000/2000.
 Best 3: 0.1467 0.1468 0.1479. Live: 41/T: 2000 (2000)/E: 1978 (1978).
