### Status of run 1600 at 2019-10-23 12:47:05 ###
 1600: Done. Have a good day! Runtime: 38.3/59970.0. Active evaluations: 0.
 Counted trials: 2000/2000.
 Best 3: 2.2875 2.3228 2.3363. Live: 41/T: 2000 (2000)/E: 1922 (1922).
