### Status of run 100 at 2019-09-09 20:49:35 ###
 100: Done. Have a good day! Runtime: 1866.8/2670.0. Active evaluations: 0.
 Counted trials: 2000/2000.
 Best 3: 0.7070 0.7218 0.7218. Live: 41/T: 2000 (1986)/E: 1939 (1925).
 {'QMMLException': 6, 'TimeoutError': 8}
