### Status of run 400 at 2019-09-25 21:39:17 ###
 400: Done. Have a good day! Runtime: 43190.2/77970.0. Active evaluations: 0.
 Counted trials: 2000/2000.
 Best 3: 0.1846 0.1888 0.1900. Live: 41/T: 2000 (1635)/E: 1858 (1511).
 {'QMMLException': 302, 'TimeoutError': 63}
