### Status of run 1000 at 2019-11-05 06:07:54 ###
 1000: Done. Have a good day! Runtime: 288811.5/299970.0. Active evaluations: 0.
 Counted trials: 2000/2000.
 Best 3: 0.1376 0.1578 0.1648. Live: 31/T: 2000 (1702)/E: 1952 (1661).
 {'QMMLException': 3, 'TimeoutError': 295}
