### Status of run 650 at 2020-02-01 17:04:44 ###
 650: Done. Have a good day! Runtime: 1204.0/8970.0. Active evaluations: 0.
 Counted trials: 2000/2000.
 Best 3: 5.1770 5.4198 5.4583. Live: 41/T: 2000 (2000)/E: 1979 (1979).
