### Status of run 10000 at 2019-09-25 06:43:12 ###
 10000: Done. Have a good day! Runtime: 406895.3/604770.0. Active evaluations: 0.
 Counted trials: 2000/2000.
 Best 3: 0.0462 0.0474 0.0475. Live: 17/T: 2000 (1929)/E: 1967 (1896).
 {'TimeoutError': 67, 'QMMLException': 4}
