### Status of run 250 at 2019-09-10 04:22:19 ###
 250: Done. Have a good day! Runtime: 8827.2/11970.0. Active evaluations: 0.
 Counted trials: 2000/2000.
 Best 3: 0.5521 0.5580 0.5638. Live: 41/T: 2000 (1999)/E: 1965 (1964).
 {'QMMLException': 1}
