### Status of run 100 at 2019-09-10 00:32:49 ###
 100: Done. Have a good day! Runtime: 995.2/1770.0. Active evaluations: 0.
 Counted trials: 2000/2000.
 Best 3: 0.6950 0.6950 0.6969. Live: 41/T: 2000 (2000)/E: 1724 (1724).
