### Status of run 160 at 2019-10-29 23:18:03 ###
 160: Done. Have a good day! Runtime: 57501.5/119970.0. Active evaluations: 0.
 Counted trials: 2000/2000.
 Best 3: 0.2486 0.2527 0.2658. Live: 41/T: 2000 (839)/E: 1992 (837).
 {'TimeoutError': 1161}
