### Status of run 1000 at 2019-11-06 15:55:34 ###
 1000: Done. Have a good day! Runtime: 89469.8/341970.0. Active evaluations: 0.
 Counted trials: 2000/2000.
 Best 3: 0.1565 0.1579 0.1589. Live: 35/T: 2000 (802)/E: 1993 (799).
 {'TimeoutError': 1198}
