### Status of run 250 at 2019-12-26 00:09:09 ###
 250: Done. Have a good day! Runtime: 231422.2/341970.0. Active evaluations: 0.
 Counted trials: 2000/2000.
 Best 3: 0.0109 0.0114 0.0116. Live: 41/T: 2000 (1711)/E: 1900 (1621).
 {'TimeoutError': 289}
