### Status of run 1600 at 2019-08-24 23:04:58 ###
 1600: Done. Have a good day! Runtime: 38280.3/47970.0. Active evaluations: 0.
 Counted trials: 2000/2000.
 Best 3: 0.0732 0.0915 0.0962. Live: 33/T: 2000 (1996)/E: 1932 (1928).
 {'QMMLException': 4}
