### Status of run 650 at 2019-09-20 08:28:54 ###
 650: Done. Have a good day! Runtime: 129119.0/239970.0. Active evaluations: 0.
 Counted trials: 2000/2000.
 Best 3: 0.7266 0.7409 0.7412. Live: 37/T: 2000 (1860)/E: 1963 (1824).
 {'QMMLException': 9, 'TimeoutError': 131}
