### Status of run 650 at 2020-01-09 11:07:47 ###
 650: Done. Have a good day! Runtime: 136.0/1470.0. Active evaluations: 0.
 Counted trials: 2000/2000.
 Best 3: 7.4306 7.4306 7.4306. Live: 41/T: 2000 (2000)/E: 1886 (1886).
