### Status of run 400 at 2019-12-31 10:13:01 ###
 400: Done. Have a good day! Runtime: 32376.7/341970.0. Active evaluations: 0.
 Counted trials: 2000/2000.
 Best 3: 0.0117 0.0117 0.0118. Live: 41/T: 2000 (1782)/E: 1852 (1643).
 {'TimeoutError': 218}
