### Status of run 250 at 2019-10-30 08:27:07 ###
 250: Done. Have a good day! Runtime: 90443.1/179970.0. Active evaluations: 0.
 Counted trials: 2000/2000.
 Best 3: 0.2236 0.2248 0.2269. Live: 41/T: 2000 (843)/E: 1990 (841).
 {'TimeoutError': 1157}
