### Status of run 650 at 2019-10-30 02:47:50 ###
 650: Done. Have a good day! Runtime: 87355.1/179970.0. Active evaluations: 0.
 Counted trials: 2000/2000.
 Best 3: 0.1607 0.1619 0.1668. Live: 41/T: 2000 (1932)/E: 1872 (1807).
 {'TimeoutError': 68}
