### Status of run 250 at 2019-10-03 05:59:56 ###
 250: Done. Have a good day! Runtime: 60498.8/83970.0. Active evaluations: 0.
 Counted trials: 2000/2000.
 Best 3: 0.2098 0.2180 0.2300. Live: 41/T: 2000 (1541)/E: 1993 (1537).
 {'TimeoutError': 458, 'QMMLException': 1}
