### Status of run 160 at 2019-11-04 15:51:27 ###
 160: Done. Have a good day! Runtime: 2330.2/10770.0. Active evaluations: 0.
 Counted trials: 2000/2000.
 Best 3: 0.1992 0.1994 0.2007. Live: 41/T: 2000 (1954)/E: 1836 (1797).
 {'TimeoutError': 46}
