### Status of run 650 at 2019-08-09 23:06:01 ###
 650: Done. Have a good day! Runtime: 2636.0/4770.0. Active evaluations: 0.
 Counted trials: 2000/2000.
 Best 3: 0.1440 0.1573 0.1598. Live: 41/T: 2000 (2000)/E: 1986 (1986).
