### Status of run 1600 at 2019-09-10 20:21:32 ###
 1600: Done. Have a good day! Runtime: 194373.9/299970.0. Active evaluations: 0.
 Counted trials: 2000/2000.
 Best 3: 0.6227 0.6242 0.6242. Live: 31/T: 2000 (1644)/E: 1936 (1591).
 {'QMMLException': 313, 'TimeoutError': 43}
