### Status of run 250 at 2019-10-18 11:00:49 ###
 250: Done. Have a good day! Runtime: 267.9/1470.0. Active evaluations: 0.
 Counted trials: 2000/2000.
 Best 3: 5.4057 6.2637 6.3828. Live: 41/T: 2000 (2000)/E: 1941 (1941).
