### Status of run 1000 at 2019-09-30 20:49:18 ###
 1000: Done. Have a good day! Runtime: 57247.4/83970.0. Active evaluations: 0.
 Counted trials: 2000/2000.
 Best 3: 0.1144 0.1148 0.1153. Live: 41/T: 2000 (2000)/E: 1707 (1707).
