### Status of run 100 at 2019-09-25 00:24:43 ###
 100: Done. Have a good day! Runtime: 1917.6/2670.0. Active evaluations: 0.
 Counted trials: 2000/2000.
 Best 3: 0.2296 0.2321 0.2337. Live: 41/T: 2000 (2000)/E: 1980 (1980).
