### Status of run 250 at 2020-01-09 11:04:24 ###
 250: Done. Have a good day! Runtime: 63.0/1470.0. Active evaluations: 0.
 Counted trials: 2011/2000.
 Best 3: 0.5217 0.5230 0.5512. Live: 41/T: 2011 (2011)/E: 1937 (1937).
