### Status of run 650 at 2019-09-10 07:03:46 ###
 650: Done. Have a good day! Runtime: 23452.5/35970.0. Active evaluations: 0.
 Counted trials: 2000/2000.
 Best 3: 0.7279 0.7281 0.7326. Live: 41/T: 2000 (1997)/E: 1693 (1690).
 {'QMMLException': 3}
