### Status of run 160 at 2019-10-01 22:23:41 ###
 160: Done. Have a good day! Runtime: 39198.1/59970.0. Active evaluations: 0.
 Counted trials: 2000/2000.
 Best 3: 0.1920 0.1967 0.1982. Live: 41/T: 2000 (1522)/E: 1995 (1519).
 {'TimeoutError': 478}
