### Status of run 10000 at 2019-07-09 13:23:56 ###
 10000: Done. Have a good day! Runtime: 83377.2/345570.0. Active evaluations: 0.
 Counted trials: 2000/2000.
 Best 3: 2.2473 2.2699 2.2771. Live: 31/T: 2000 (2000)/E: 1925 (1925).
