### Status of run 400 at 2019-10-31 01:00:05 ###
 400: Done. Have a good day! Runtime: 150019.8/239970.0. Active evaluations: 0.
 Counted trials: 2000/2000.
 Best 3: 0.1864 0.1868 0.1870. Live: 41/T: 2000 (771)/E: 1992 (768).
 {'TimeoutError': 1229}
