### Status of run 250 at 2019-09-08 18:44:32 ###
 250: Done. Have a good day! Runtime: 9253.3/11970.0. Active evaluations: 0.
 Counted trials: 2000/2000.
 Best 3: 0.5334 0.5420 0.5695. Live: 41/T: 2000 (1998)/E: 1966 (1964).
 {'QMMLException': 2}
