### Status of run 1000 at 2019-10-08 20:46:44 ###
 1000: Done. Have a good day! Runtime: 245933.6/299970.0. Active evaluations: 0.
 Counted trials: 2000/2000.
 Best 3: 0.1904 0.1919 0.1926. Live: 41/T: 2000 (1511)/E: 1993 (1506).
 {'TimeoutError': 487, 'QMMLException': 2}
