### Status of run 650 at 2019-10-24 21:24:08 ###
 650: Done. Have a good day! Runtime: 1968.5/7170.0. Active evaluations: 0.
 Counted trials: 2000/2000.
 Best 3: 0.1873 0.1883 0.1883. Live: 41/T: 2000 (2000)/E: 1946 (1946).
