### Status of run 650 at 2019-11-01 00:44:25 ###
 650: Done. Have a good day! Runtime: 235482.2/299970.0. Active evaluations: 0.
 Counted trials: 2000/2000.
 Best 3: 0.1905 0.1910 0.1920. Live: 41/T: 2000 (832)/E: 1994 (831).
 {'TimeoutError': 1168}
