### Status of run 100 at 2020-01-09 05:10:32 ###
 100: Done. Have a good day! Runtime: 0.3/3570.0. Active evaluations: 0.
 Counted trials: 2000/2000.
 Best 3: 0.3823 0.3875 0.3892. Live: 41/T: 2000 (2000)/E: 1980 (1980).
