### Status of run 100 at 2019-09-08 16:34:27 ###
 100: Done. Have a good day! Runtime: 1894.0/2670.0. Active evaluations: 0.
 Counted trials: 2000/2000.
 Best 3: 0.7268 0.7569 0.7702. Live: 41/T: 2000 (2000)/E: 1975 (1975).
