### Status of run 100 at 2019-12-06 13:49:58 ###
 100: Done. Have a good day! Runtime: 92835.1/143970.0. Active evaluations: 0.
 Counted trials: 2000/2000.
 Best 3: 0.8327 0.8501 0.8603. Live: 41/T: 2000 (1721)/E: 1900 (1629).
 {'TimeoutError': 279}
