### Status of run 1600 at 2019-11-06 20:07:13 ###
 1600: Done. Have a good day! Runtime: 105014.9/341970.0. Active evaluations: 0.
 Counted trials: 2000/2000.
 Best 3: 0.1541 0.1558 0.1577. Live: 31/T: 2000 (1565)/E: 1967 (1542).
 {'TimeoutError': 435}
