### Status of run 250 at 2019-12-14 11:28:37 ###
 250: Done. Have a good day! Runtime: 235961.6/341970.0. Active evaluations: 0.
 Counted trials: 2000/2000.
 Best 3: 0.0076 0.0078 0.0081. Live: 41/T: 2000 (1750)/E: 1892 (1651).
 {'TimeoutError': 250}
