### Status of run 250 at 2019-09-09 23:05:04 ###
 250: Done. Have a good day! Runtime: 9996.0/14970.0. Active evaluations: 0.
 Counted trials: 2000/2000.
 Best 3: 0.5009 0.5025 0.5050. Live: 41/T: 2000 (1865)/E: 1911 (1782).
 {'QMMLException': 114, 'TimeoutError': 21}
