### Status of run 100 at 2019-09-25 05:29:51 ###
 100: Done. Have a good day! Runtime: 7117.9/8970.0. Active evaluations: 0.
 Counted trials: 2000/2000.
 Best 3: 0.2315 0.2333 0.2374. Live: 41/T: 2000 (1961)/E: 1857 (1820).
 {'TimeoutError': 39}
