### Status of run 160 at 2019-09-08 17:07:50 ###
 160: Done. Have a good day! Runtime: 3863.2/5970.0. Active evaluations: 0.
 Counted trials: 2000/2000.
 Best 3: 0.5676 0.5690 0.5740. Live: 41/T: 2000 (2000)/E: 1983 (1983).
