### Status of run 650 at 2019-10-18 11:19:46 ###
 650: Done. Have a good day! Runtime: 1413.8/8970.0. Active evaluations: 0.
 Counted trials: 2000/2000.
 Best 3: 3.5964 3.6909 3.6909. Live: 41/T: 2000 (2000)/E: 1932 (1932).
