### Status of run 160 at 2019-12-06 19:19:06 ###
 160: Done. Have a good day! Runtime: 3273.8/4770.0. Active evaluations: 0.
 Counted trials: 2000/2000.
 Best 3: 0.7245 0.7658 0.7667. Live: 41/T: 2000 (2000)/E: 1890 (1890).
