### Status of run 10000 at 2020-01-27 07:33:01 ###
 10000: Done. Have a good day! Runtime: 325478.7/329970.0. Active evaluations: 0.
 Counted trials: 2000/2000.
 Best 3: 0.0468 0.0475 0.0476. Live: 11/T: 2000 (2000)/E: 2000 (2000).
