### Status of run 250 at 2019-09-09 17:48:05 ###
 250: Done. Have a good day! Runtime: 20436.5/44970.0. Active evaluations: 0.
 Counted trials: 2000/2000.
 Best 3: 0.5204 0.5309 0.5320. Live: 41/T: 2000 (1633)/E: 1858 (1522).
 {'QMMLException': 318, 'TimeoutError': 49}
