

 ### Table for loss rmsle (meV/cation; mean (std)) ### 
            rmsle! sizes: 100             160             250             400             650             1000            1600            
                   m2_ps:  35.42 (  3.40)  29.58 (  2.94)  28.07 (  2.76)  25.98 (  1.94)  23.64 (  1.54)  22.45 (  1.46)  20.99 (  1.28) 
                  m23_ps:  33.37 (  2.80)  31.68 (  1.96)  28.06 (  3.00)  25.55 (  1.72)  23.87 (  1.34)  21.41 (  1.11)  20.99 (  1.31) 
                mbtr2_ps:  37.22 (  4.77)  33.06 (  3.25)  26.69 (  2.64)  25.07 (  1.64)  23.64 (  1.57)  21.93 (  1.36)  20.03 (  1.47) 
                mbtr2_pa:  39.12 (  5.11)  32.53 (  2.45)  25.80 (  1.92)  25.24 (  1.49)  22.58 (  1.47)  22.20 (  1.58)  20.37 (  1.39) 
                  sf2_ps:  34.47 (  3.66)  31.79 (  2.62)  30.07 (  1.32)  24.24 (  1.14)  22.51 (  1.41)  20.40 (  1.47)  18.98 (  1.10) 
                 sf23_ps:  29.85 (  3.06)  33.77 (  3.39)  28.36 (  1.56)  24.98 (  1.99)  23.47 (  1.32)  20.40 (  1.26)  19.08 (  1.07) 
                 soap_ps:  31.39 (  2.97)  28.78 (  2.19)  24.46 (  1.92)  23.50 (  1.81)  22.49 (  1.49)  21.38 (  1.58)  20.20 (  1.39) 
          ds_soap_gto_ps:  33.50 (  4.01)  31.36 (  2.95)  23.95 (  2.59)  24.01 (  2.59)  22.13 (  1.36)  20.60 (  1.62)  19.11 (  1.31) 
         ds_soap_poly_ps:  33.08 (  3.99)  28.15 (  1.91)  27.46 (  3.50)  23.20 (  2.23)  22.39 (  1.53)  20.48 (  1.53)  19.27 (  1.23) 
                   m2_pa:  37.71 (  7.09)  39.02 (  3.56)  27.47 (  1.69)  25.75 (  1.99)  23.39 (  1.54)  21.96 (  1.21)  20.59 (  1.44) 
                  m23_pa:  36.00 (  2.51)  30.82 (  1.23)  30.76 (  4.83)  24.59 (  1.54)  23.55 (  1.23)  22.26 (  1.33)  20.56 (  1.40) 
                   m2_pn:  35.86 (  3.65)  35.92 (  2.81)  26.82 (  1.83)  25.99 (  1.91)  22.97 (  1.59)  22.42 (  1.27)  21.29 (  1.33) 
                  m23_pn:  34.08 (  4.43)  31.89 (  1.67)  28.79 (  3.42)  24.91 (  1.30)  22.86 (  1.31)  22.50 (  1.57)  20.00 (  1.33) 
