### Status of run 250 at 2019-12-06 21:17:19 ###
 250: Done. Have a good day! Runtime: 4526.4/5970.0. Active evaluations: 0.
 Counted trials: 2000/2000.
 Best 3: 0.5647 0.5696 0.5702. Live: 41/T: 2000 (2000)/E: 1870 (1870).
