### Status of run 4000 at 2019-08-10 14:33:02 ###
 4000: Done. Have a good day! Runtime: 85363.2/119970.0. Active evaluations: 0.
 Counted trials: 2000/2000.
 Best 3: 0.0555 0.0557 0.0560. Live: 31/T: 2000 (1653)/E: 1959 (1616).
 {'QMMLException': 347}
