### Status of run 400 at 2019-09-26 07:23:47 ###
 400: Done. Have a good day! Runtime: 37173.8/77970.0. Active evaluations: 0.
 Counted trials: 2000/2000.
 Best 3: 0.1558 0.1667 0.1804. Live: 41/T: 2000 (1946)/E: 1881 (1835).
 {'TimeoutError': 54}
