### Status of run 400 at 2019-12-06 22:02:52 ###
 400: Done. Have a good day! Runtime: 7410.1/10770.0. Active evaluations: 0.
 Counted trials: 2000/2000.
 Best 3: 0.3523 0.3523 0.3523. Live: 41/T: 2000 (2000)/E: 1902 (1902).
