### Status of run 250 at 2019-10-30 08:50:03 ###
 250: Done. Have a good day! Runtime: 91820.4/179970.0. Active evaluations: 0.
 Counted trials: 2000/2000.
 Best 3: 0.2266 0.2288 0.2339. Live: 41/T: 2000 (811)/E: 1992 (809).
 {'TimeoutError': 1189}
