### Status of run 1000 at 2019-12-11 23:14:51 ###
 1000: Done. Have a good day! Runtime: 19207.0/29970.0. Active evaluations: 0.
 Counted trials: 2000/2000.
 Best 3: 0.0035 0.0035 0.0035. Live: 41/T: 2000 (2000)/E: 1870 (1870).
