### Status of run 650 at 2019-10-25 13:14:53 ###
 650: Done. Have a good day! Runtime: 61007.7/71970.0. Active evaluations: 0.
 Counted trials: 2000/2000.
 Best 3: 0.1587 0.1628 0.1694. Live: 41/T: 2000 (1916)/E: 1906 (1827).
 {'QMMLException': 31, 'TimeoutError': 53}
