### Status of run 100 at 2020-01-09 11:05:15 ###
 100: Done. Have a good day! Runtime: 55.8/1470.0. Active evaluations: 0.
 Counted trials: 2000/2000.
 Best 3: 11.9905 11.9905 11.9905. Live: 41/T: 2000 (2000)/E: 1943 (1943).
