### Status of run 1600 at 2019-10-06 09:14:40 ###
 1600: Done. Have a good day! Runtime: 151224.0/179970.0. Active evaluations: 0.
 Counted trials: 2000/2000.
 Best 3: 0.1131 0.1185 0.1193. Live: 31/T: 2000 (2000)/E: 1958 (1958).
