### Status of run 100 at 2019-10-24 17:59:39 ###
 100: Done. Have a good day! Runtime: 293.8/3570.0. Active evaluations: 0.
 Counted trials: 2000/2000.
 Best 3: 0.2526 0.2706 0.2781. Live: 41/T: 2000 (1999)/E: 1933 (1932).
 {'QMMLException': 1}
