### Status of run 250 at 2020-01-09 11:04:33 ###
 250: Done. Have a good day! Runtime: 65.7/1470.0. Active evaluations: 0.
 Counted trials: 2005/2000.
 Best 3: 9.1713 9.1713 9.1713. Live: 41/T: 2005 (2005)/E: 1928 (1928).
