### Status of run 10000 at 2020-01-11 01:10:40 ###
 10000: Done. Have a good day! Runtime: 137164.6/269970.0. Active evaluations: 0.
 Counted trials: 2000/2000.
 Best 3: 2.7698 2.7698 2.7705. Live: 31/T: 2000 (2000)/E: 1892 (1892).
