### Status of run 250 at 2019-10-24 19:55:47 ###
 250: Done. Have a good day! Runtime: 13943.7/14970.0. Active evaluations: 0.
 Counted trials: 2000/2000.
 Best 3: 0.1730 0.1733 0.1756. Live: 41/T: 2000 (1967)/E: 1922 (1890).
 {'TimeoutError': 33}
