### Status of run 400 at 2019-12-06 22:07:25 ###
 400: Done. Have a good day! Runtime: 7308.5/10770.0. Active evaluations: 0.
 Counted trials: 2000/2000.
 Best 3: 0.5918 0.5940 0.5986. Live: 41/T: 2000 (2000)/E: 1870 (1870).
