### Status of run 160 at 2019-10-07 19:40:52 ###
 160: Done. Have a good day! Runtime: 2461.8/10770.0. Active evaluations: 0.
 Counted trials: 2000/2000.
 Best 3: 0.1984 0.2033 0.2049. Live: 41/T: 2000 (1953)/E: 1859 (1816).
 {'TimeoutError': 47}
