### Status of run 1000 at 2019-10-24 21:17:38 ###
 1000: Done. Have a good day! Runtime: 1634.6/7170.0. Active evaluations: 0.
 Counted trials: 2000/2000.
 Best 3: 0.1590 0.1596 0.1632. Live: 41/T: 2000 (2000)/E: 1939 (1939).
