### Status of run 250 at 2019-09-24 23:51:15 ###
 250: Done. Have a good day! Runtime: 333.2/1770.0. Active evaluations: 0.
 Counted trials: 2000/2000.
 Best 3: 0.2378 0.2395 0.2395. Live: 41/T: 2000 (1996)/E: 1931 (1927).
 {'QMMLException': 4}
