### Status of run 400 at 2019-09-26 07:46:21 ###
 400: Done. Have a good day! Runtime: 36237.4/77970.0. Active evaluations: 0.
 Counted trials: 2000/2000.
 Best 3: 0.1505 0.1557 0.1557. Live: 41/T: 2000 (1950)/E: 1854 (1807).
 {'TimeoutError': 50}
