### Status of run 250 at 2019-10-24 14:35:15 ###
 250: Done. Have a good day! Runtime: 323.6/1770.0. Active evaluations: 0.
 Counted trials: 2000/2000.
 Best 3: 0.2226 0.2319 0.2320. Live: 41/T: 2000 (2000)/E: 1918 (1918).
