### Status of run 4000 at 2020-01-09 13:33:33 ###
 4000: Done. Have a good day! Runtime: 30228.6/329970.0. Active evaluations: 0.
 Counted trials: 2000/2000.
 Best 3: 0.0641 0.0642 0.0643. Live: 31/T: 2000 (2000)/E: 1945 (1945).
