### Status of run 100 at 2020-02-01 16:51:06 ###
 100: Done. Have a good day! Runtime: 123.4/1470.0. Active evaluations: 0.
 Counted trials: 2011/2000.
 Best 3: 9.3687 9.3937 9.9424. Live: 41/T: 2011 (2011)/E: 2010 (2010).
