### Status of run 1000 at 2019-12-11 23:07:02 ###
 1000: Done. Have a good day! Runtime: 18671.3/29970.0. Active evaluations: 0.
 Counted trials: 2000/2000.
 Best 3: 0.0039 0.0039 0.0040. Live: 41/T: 2000 (2000)/E: 1860 (1860).
