### Status of run 1600 at 2019-11-14 12:08:48 ###
 1600: Done. Have a good day! Runtime: 146948.2/604770.0. Active evaluations: 0.
 Counted trials: 2000/2000.
 Best 3: 0.1287 0.1601 0.2057. Live: 25/T: 2000 (1422)/E: 1972 (1401).
 {'TimeoutError': 575, 'QMMLException': 3}
