### Status of run 4000 at 2019-10-20 10:42:11 ###
 4000: Done. Have a good day! Runtime: 115920.1/419970.0. Active evaluations: 0.
 Counted trials: 2000/2000.
 Best 3: 2.1842 2.6875 2.6876. Live: 25/T: 2000 (1994)/E: 1923 (1917).
 {'QMMLException': 6}
