### Status of run 100 at 2019-08-05 18:31:28 ###
 100: Done. Have a good day! Runtime: 649.7/1470.0. Active evaluations: 0.
 Counted trials: 2000/2000.
 Best 3: 0.3934 0.3970 0.3971. Live: 41/T: 2000 (2000)/E: 1819 (1819).
