### Status of run 1000 at 2020-01-05 16:58:49 ###
 1000: Done. Have a good day! Runtime: 94563.6/341970.0. Active evaluations: 0.
 Counted trials: 2000/2000.
 Best 3: 0.0042 0.0043 0.0043. Live: 35/T: 2000 (1794)/E: 1950 (1753).
 {'TimeoutError': 206}
