### Status of run 4000 at 2019-10-19 22:42:37 ###
 4000: Done. Have a good day! Runtime: 110012.1/419970.0. Active evaluations: 0.
 Counted trials: 2000/2000.
 Best 3: 2.4663 2.6434 2.8509. Live: 25/T: 2000 (1996)/E: 1915 (1911).
 {'QMMLException': 4}
