### Status of run 250 at 2019-09-18 06:01:41 ###
 250: Done. Have a good day! Runtime: 31520.3/59970.0. Active evaluations: 0.
 Counted trials: 2000/2000.
 Best 3: 0.5590 0.5806 0.5887. Live: 33/T: 2000 (1995)/E: 1946 (1941).
 {'QMMLException': 4, 'TimeoutError': 1}
