### Status of run 1600 at 2019-08-06 00:39:09 ###
 1600: Done. Have a good day! Runtime: 22708.6/35970.0. Active evaluations: 0.
 Counted trials: 2000/2000.
 Best 3: 0.0709 0.0722 0.0723. Live: 41/T: 2000 (1827)/E: 1844 (1687).
 {'QMMLException': 173}
