### Status of run 160 at 2019-10-25 21:10:41 ###
 160: Done. Have a good day! Runtime: 39121.5/59970.0. Active evaluations: 0.
 Counted trials: 2000/2000.
 Best 3: 0.2257 0.2272 0.2287. Live: 41/T: 2000 (1541)/E: 1991 (1534).
 {'TimeoutError': 459}
