### Status of run 250 at 2020-01-09 05:23:04 ###
 250: Done. Have a good day! Runtime: 830.4/11970.0. Active evaluations: 0.
 Counted trials: 2000/2000.
 Best 3: 0.1453 0.1536 0.1540. Live: 41/T: 2000 (2000)/E: 1973 (1973).
