### Status of run 100 at 2019-09-25 00:11:41 ###
 100: Done. Have a good day! Runtime: 988.6/1770.0. Active evaluations: 0.
 Counted trials: 2000/2000.
 Best 3: 0.2284 0.2284 0.2284. Live: 41/T: 2000 (2000)/E: 1653 (1653).
