### Status of run 100 at 2019-10-18 10:57:22 ###
 100: Done. Have a good day! Runtime: 59.9/1470.0. Active evaluations: 0.
 Counted trials: 2000/2000.
 Best 3: 8.0420 8.3610 8.7719. Live: 41/T: 2000 (2000)/E: 1961 (1961).
