### Status of run 250 at 2019-09-25 16:05:28 ###
 250: Done. Have a good day! Runtime: 23461.3/44970.0. Active evaluations: 0.
 Counted trials: 2000/2000.
 Best 3: 0.1949 0.2009 0.2036. Live: 41/T: 2000 (1612)/E: 1850 (1489).
 {'QMMLException': 334, 'TimeoutError': 54}
