### Status of run 400 at 2019-09-08 19:38:56 ###
 400: Done. Have a good day! Runtime: 10588.9/17970.0. Active evaluations: 0.
 Counted trials: 2000/2000.
 Best 3: 0.5978 0.6013 0.6019. Live: 41/T: 2000 (1988)/E: 1725 (1714).
 {'QMMLException': 12}
