### Status of run 100 at 2020-01-09 11:35:06 ###
 100: Done. Have a good day! Runtime: 125.7/1470.0. Active evaluations: 0.
 Counted trials: 2012/2000.
 Best 3: 11.8472 11.9655 12.0175. Live: 41/T: 2012 (2012)/E: 1981 (1981).
