### Status of run 100 at 2020-01-09 11:16:46 ###
 100: Done. Have a good day! Runtime: 126.6/1470.0. Active evaluations: 0.
 Counted trials: 2016/2000.
 Best 3: 0.7088 0.7259 0.7359. Live: 41/T: 2016 (2016)/E: 1983 (1983).
