### Status of run 1600 at 2020-01-09 09:04:22 ###
 1600: Done. Have a good day! Runtime: 14162.5/59970.0. Active evaluations: 0.
 Counted trials: 2000/2000.
 Best 3: 0.0097 0.0099 0.0105. Live: 41/T: 2000 (2000)/E: 1975 (1975).
