### Status of run 250 at 2019-12-26 00:35:11 ###
 250: Done. Have a good day! Runtime: 231322.7/341970.0. Active evaluations: 0.
 Counted trials: 2000/2000.
 Best 3: 0.0114 0.0114 0.0115. Live: 41/T: 2000 (1726)/E: 1905 (1642).
 {'TimeoutError': 274}
