### Status of run 400 at 2019-09-29 17:59:11 ###
 400: Done. Have a good day! Runtime: 17675.5/23970.0. Active evaluations: 0.
 Counted trials: 2000/2000.
 Best 3: 0.2035 0.2051 0.2055. Live: 41/T: 2000 (1993)/E: 1961 (1954).
 {'QMMLException': 7}
