### Status of run 100 at 2019-09-08 14:54:32 ###
 100: Done. Have a good day! Runtime: 1949.5/2670.0. Active evaluations: 0.
 Counted trials: 2000/2000.
 Best 3: 0.6963 0.7240 0.7249. Live: 41/T: 2000 (1990)/E: 1938 (1929).
 {'TimeoutError': 9, 'QMMLException': 1}
