### Status of run 10000 at 2019-07-17 12:14:39 ###
 10000: Done. Have a good day! Runtime: 237570.4/345570.0. Active evaluations: 0.
 Counted trials: 2000/2000.
 Best 3: 2.1179 2.1606 2.1766. Live: 31/T: 2000 (2000)/E: 1935 (1935).
