### Status of run 250 at 2019-09-25 21:04:05 ###
 250: Done. Have a good day! Runtime: 9016.2/11970.0. Active evaluations: 0.
 Counted trials: 2000/2000.
 Best 3: 0.1846 0.1891 0.1914. Live: 41/T: 2000 (2000)/E: 1971 (1971).
