### Status of run 1600 at 2019-10-23 12:50:47 ###
 1600: Done. Have a good day! Runtime: 221.9/59970.0. Active evaluations: 0.
 Counted trials: 2000/2000.
 Best 3: 2.2786 2.3043 2.3043. Live: 41/T: 2000 (2000)/E: 1921 (1921).
