### Status of run 1600 at 2020-01-09 11:43:51 ###
 1600: Done. Have a good day! Runtime: 2160.6/7170.0. Active evaluations: 0.
 Counted trials: 2000/2000.
 Best 3: 0.2489 0.2523 0.2525. Live: 41/T: 2000 (2000)/E: 1874 (1874).
