### Status of run 1000 at 2019-11-06 17:02:24 ###
 1000: Done. Have a good day! Runtime: 92504.5/239970.0. Active evaluations: 0.
 Counted trials: 2000/2000.
 Best 3: 0.1248 0.1297 0.1306. Live: 41/T: 2000 (1905)/E: 1911 (1820).
 {'QMMLException': 5, 'TimeoutError': 90}
