### Status of run 650 at 2019-09-09 02:10:02 ###
 650: Done. Have a good day! Runtime: 35790.8/41970.0. Active evaluations: 0.
 Counted trials: 2000/2000.
 Best 3: 0.7410 0.7541 0.7643. Live: 41/T: 2000 (2000)/E: 1970 (1970).
