### Status of run 100 at 2019-12-12 19:24:43 ###
 100: Done. Have a good day! Runtime: 91527.7/143970.0. Active evaluations: 0.
 Counted trials: 2000/2000.
 Best 3: 0.0146 0.0151 0.0151. Live: 41/T: 2000 (1747)/E: 1873 (1630).
 {'TimeoutError': 253}
