### Status of run 250 at 2019-12-25 23:51:22 ###
 250: Done. Have a good day! Runtime: 228085.1/341970.0. Active evaluations: 0.
 Counted trials: 2000/2000.
 Best 3: 0.5703 0.5737 0.5793. Live: 41/T: 2000 (1804)/E: 1871 (1684).
 {'TimeoutError': 196}
