### Status of run 650 at 2019-10-25 13:21:46 ###
 650: Done. Have a good day! Runtime: 36370.3/41970.0. Active evaluations: 0.
 Counted trials: 2000/2000.
 Best 3: 0.1697 0.1713 0.1736. Live: 41/T: 2000 (2000)/E: 1973 (1973).
