### Status of run 160 at 2019-10-24 22:09:54 ###
 160: Done. Have a good day! Runtime: 3825.8/5970.0. Active evaluations: 0.
 Counted trials: 2000/2000.
 Best 3: 0.1805 0.1827 0.1865. Live: 41/T: 2000 (2000)/E: 1973 (1973).
