### Status of run 4000 at 2019-06-25 23:11:31 ###
 4000: Done. Have a good day! Runtime: 40029.0/107970.0. Active evaluations: 0.
 Counted trials: 2000/2000.
 Best 3: 2.9600 2.9615 3.0265. Live: 31/T: 2000 (2000)/E: 1935 (1935).
