### Status of run 1600 at 2019-09-24 21:10:03 ###
 1600: Done. Have a good day! Runtime: 3299.1/11970.0. Active evaluations: 0.
 Counted trials: 2000/2000.
 Best 3: 0.1859 0.1893 0.1902. Live: 31/T: 2000 (1999)/E: 1950 (1949).
 {'QMMLException': 1}
