### Status of run 4000 at 2019-08-10 08:43:25 ###
 4000: Done. Have a good day! Runtime: 31094.6/95970.0. Active evaluations: 0.
 Counted trials: 2000/2000.
 Best 3: 0.0740 0.0744 0.0746. Live: 31/T: 2000 (1901)/E: 1945 (1847).
 {'QMMLException': 99}
