### Status of run 160 at 2019-12-06 19:17:17 ###
 160: Done. Have a good day! Runtime: 2825.7/4770.0. Active evaluations: 0.
 Counted trials: 2000/2000.
 Best 3: 0.7213 0.7245 0.7658. Live: 41/T: 2000 (2000)/E: 1905 (1905).
