### Status of run 400 at 2019-10-25 01:59:06 ###
 400: Done. Have a good day! Runtime: 11012.4/17970.0. Active evaluations: 0.
 Counted trials: 2000/2000.
 Best 3: 0.1675 0.1697 0.1701. Live: 41/T: 2000 (2000)/E: 1646 (1646).
