### Status of run 100 at 2019-08-20 14:12:08 ###
 100: Done. Have a good day! Runtime: 1936.9/3570.0. Active evaluations: 0.
 Counted trials: 2000/2000.
 Best 3: 0.3948 0.4245 0.4270. Live: 33/T: 2000 (2000)/E: 1966 (1966).
