### Status of run 160 at 2019-10-07 17:06:59 ###
 160: Done. Have a good day! Runtime: 652.9/10770.0. Active evaluations: 0.
 Counted trials: 2000/2000.
 Best 3: 0.1967 0.2116 0.2131. Live: 41/T: 2000 (1961)/E: 1887 (1848).
 {'TimeoutError': 39}
