### Status of run 1600 at 2019-09-12 05:48:17 ###
 1600: Done. Have a good day! Runtime: 205119.6/299970.0. Active evaluations: 0.
 Counted trials: 2000/2000.
 Best 3: 0.6172 0.6235 0.6248. Live: 31/T: 2000 (1645)/E: 1927 (1590).
 {'QMMLException': 294, 'TimeoutError': 61}
