### Status of run 160 at 2019-09-25 00:37:00 ###
 160: Done. Have a good day! Runtime: 2414.6/3570.0. Active evaluations: 0.
 Counted trials: 2000/2000.
 Best 3: 0.2142 0.2163 0.2188. Live: 41/T: 2000 (2000)/E: 1667 (1667).
