### Status of run 1600 at 2019-10-19 02:47:38 ###
 1600: Done. Have a good day! Runtime: 117125.3/335970.0. Active evaluations: 0.
 Counted trials: 2000/2000.
 Best 3: 0.1851 0.1851 0.1854. Live: 25/T: 2000 (1514)/E: 1949 (1478).
 {'QMMLException': 412, 'TimeoutError': 74}
