### Status of run 100 at 2019-09-25 00:14:23 ###
 100: Done. Have a good day! Runtime: 6147.7/8970.0. Active evaluations: 0.
 Counted trials: 2000/2000.
 Best 3: 0.4534 0.4714 0.4726. Live: 41/T: 2000 (1965)/E: 1873 (1841).
 {'TimeoutError': 35}
