### Status of run 250 at 2019-09-25 15:33:22 ###
 250: Done. Have a good day! Runtime: 10461.3/14970.0. Active evaluations: 0.
 Counted trials: 2000/2000.
 Best 3: 0.1379 0.1490 0.1559. Live: 41/T: 2000 (1972)/E: 1931 (1903).
 {'TimeoutError': 25, 'QMMLException': 3}
