### Status of run 10000 at 2019-08-13 17:03:34 ###
 10000: Done. Have a good day! Runtime: 319823.1/345570.0. Active evaluations: 0.
 Counted trials: 2000/2000.
 Best 3: 0.0659 0.0660 0.0660. Live: 25/T: 2000 (1878)/E: 1942 (1826).
 {'QMMLException': 122}
