### Status of run 400 at 2019-12-31 05:05:13 ###
 400: Done. Have a good day! Runtime: 13557.7/341970.0. Active evaluations: 0.
 Counted trials: 2000/2000.
 Best 3: 0.5893 0.5906 0.5926. Live: 41/T: 2000 (1794)/E: 1874 (1677).
 {'TimeoutError': 205, 'QMMLException': 1}
