### Status of run 650 at 2019-07-14 18:26:55 ###
 650: Done. Have a good day! Runtime: 703.2/8970.0. Active evaluations: 0.
 Counted trials: 2000/2000.
 Best 3: 5.8857 6.0959 6.1070. Live: 41/T: 2000 (2000)/E: 1839 (1839).
