### Status of run 250 at 2019-09-25 05:05:10 ###
 250: Done. Have a good day! Runtime: 5634.4/7170.0. Active evaluations: 0.
 Counted trials: 2000/2000.
 Best 3: 0.2013 0.2017 0.2019. Live: 41/T: 2000 (2000)/E: 1705 (1705).
