### Status of run 1000 at 2019-10-07 05:35:51 ###
 1000: Done. Have a good day! Runtime: 80012.3/119970.0. Active evaluations: 0.
 Counted trials: 2000/2000.
 Best 3: 0.1909 0.1911 0.1911. Live: 41/T: 2000 (1982)/E: 1982 (1964).
 {'QMMLException': 18}
