### Status of run 650 at 2019-12-06 23:22:34 ###
 650: Done. Have a good day! Runtime: 11817.3/14370.0. Active evaluations: 0.
 Counted trials: 2000/2000.
 Best 3: 0.7451 0.7458 0.7508. Live: 41/T: 2000 (2000)/E: 1867 (1867).
