### Status of run 1600 at 2019-10-24 23:20:34 ###
 1600: Done. Have a good day! Runtime: 5645.5/23970.0. Active evaluations: 0.
 Counted trials: 2000/2000.
 Best 3: 0.1406 0.1443 0.1443. Live: 31/T: 2000 (2000)/E: 1958 (1958).
