### Status of run 1600 at 2019-10-31 04:13:55 ###
 1600: Done. Have a good day! Runtime: 147147.7/179970.0. Active evaluations: 0.
 Counted trials: 2000/2000.
 Best 3: 0.1206 0.1248 0.1255. Live: 31/T: 2000 (2000)/E: 1939 (1939).
