### Status of run 250 at 2019-06-25 13:49:17 ###
 250: Done. Have a good day! Runtime: 350.3/1470.0. Active evaluations: 0.
 Counted trials: 2005/2000.
 Best 3: 8.5400 8.6897 8.8971. Live: 41/T: 2005 (2005)/E: 2000 (2000).
