### Status of run 1600 at 2019-09-29 06:57:23 ###
 1600: Done. Have a good day! Runtime: 105133.3/604770.0. Active evaluations: 0.
 Counted trials: 2000/2000.
 Best 3: 0.6312 0.6326 0.6388. Live: 25/T: 2000 (1463)/E: 1950 (1429).
 {'TimeoutError': 527, 'QMMLException': 10}
