### Status of run 400 at 2019-12-06 22:01:33 ###
 400: Done. Have a good day! Runtime: 7180.6/10770.0. Active evaluations: 0.
 Counted trials: 2000/2000.
 Best 3: 0.5930 0.5940 0.5974. Live: 41/T: 2000 (1999)/E: 1881 (1880).
 {'QMMLException': 1}
