### Status of run 100 at 2019-07-05 18:48:05 ###
 100: Done. Have a good day! Runtime: 1783.3/7170.0. Active evaluations: 0.
 Counted trials: 2013/2000.
 Best 3: 8.7534 9.1122 10.4191. Live: 33/T: 2013 (2013)/E: 1985 (1985).
