### Status of run 250 at 2019-10-18 11:53:07 ###
 250: Done. Have a good day! Runtime: 2958.1/7170.0. Active evaluations: 0.
 Counted trials: 2000/2000.
 Best 3: 8.4569 8.6775 9.7411. Live: 33/T: 2000 (2000)/E: 1962 (1962).
