### Status of run 100 at 2019-09-09 23:56:33 ###
 100: Done. Have a good day! Runtime: 993.6/1770.0. Active evaluations: 0.
 Counted trials: 2000/2000.
 Best 3: 0.6611 0.6611 0.6611. Live: 41/T: 2000 (2000)/E: 1690 (1690).
