### Status of run 160 at 2019-09-18 01:03:37 ###
 160: Done. Have a good day! Runtime: 13638.1/17970.0. Active evaluations: 0.
 Counted trials: 2000/2000.
 Best 3: 0.6355 0.6438 0.6567. Live: 33/T: 2000 (1999)/E: 1954 (1953).
 {'QMMLException': 1}
