

 ### Table for loss mae (meV/cation; mean (std)) ### 
              mae! sizes: 100             160             250             400             650             1000            1600            
          ds_soap_gto_ps:  25.91 (  3.32)  24.28 (  2.29)  17.47 (  1.77)  17.68 (  2.09)  16.02 (  1.07)  14.67 (  0.81)  14.02 (  0.67) 
         ds_soap_poly_ps:  25.28 (  3.26)  22.62 (  1.82)  20.90 (  3.16)  17.06 (  1.79)  16.61 (  1.18)  14.81 (  0.80)  14.08 (  0.62) 
                 soap_ps:  25.16 (  2.25)  22.85 (  1.98)  18.62 (  1.76)  17.38 (  1.36)  16.94 (  1.21)  15.37 (  0.71)  13.90 (  0.48) 
