### Status of run 10000 at 2019-10-14 07:51:57 ###
 10000: Done. Have a good day! Runtime: 319272.4/604770.0. Active evaluations: 0.
 Counted trials: 2000/2000.
 Best 3: 0.0462 0.0462 0.0463. Live: 17/T: 2000 (1910)/E: 1994 (1904).
 {'TimeoutError': 84, 'QMMLException': 6}
