### Status of run 4000 at 2020-01-09 15:19:20 ###
 4000: Done. Have a good day! Runtime: 15800.6/35970.0. Active evaluations: 0.
 Counted trials: 2000/2000.
 Best 3: 0.1531 0.1534 0.1534. Live: 31/T: 2000 (2000)/E: 1973 (1973).
