### Status of run 100 at 2020-01-04 21:31:45 ###
 100: Done. Have a good day! Runtime: 104.5/570.0. Active evaluations: 0.
 Counted trials: 2000/2000.
 Best 3: 0.0524 0.0525 0.0526. Live: 41/T: 2000 (2000)/E: 1908 (1908).
