### Status of run 4000 at 2019-08-06 04:58:27 ###
 4000: Done. Have a good day! Runtime: 31557.8/95970.0. Active evaluations: 0.
 Counted trials: 2000/2000.
 Best 3: 0.0740 0.0742 0.0744. Live: 31/T: 2000 (1827)/E: 1925 (1758).
 {'QMMLException': 173}
