### Status of run 250 at 2020-01-09 05:27:40 ###
 250: Done. Have a good day! Runtime: 1068.4/11970.0. Active evaluations: 0.
 Counted trials: 2000/2000.
 Best 3: 0.1429 0.1440 0.1491. Live: 41/T: 2000 (2000)/E: 1985 (1985).
