### Status of run 400 at 2019-09-25 00:00:29 ###
 400: Done. Have a good day! Runtime: 556.8/2670.0. Active evaluations: 0.
 Counted trials: 2000/2000.
 Best 3: 0.2036 0.2041 0.2049. Live: 41/T: 2000 (1995)/E: 1918 (1913).
 {'QMMLException': 5}
