### Status of run 250 at 2019-12-11 15:45:03 ###
 250: Done. Have a good day! Runtime: 4573.8/5970.0. Active evaluations: 0.
 Counted trials: 2000/2000.
 Best 3: 0.0061 0.0061 0.0061. Live: 41/T: 2000 (2000)/E: 1878 (1878).
