### Status of run 10000 at 2019-07-04 02:00:14 ###
 10000: Done. Have a good day! Runtime: 138324.9/599970.0. Active evaluations: 0.
 Counted trials: 2000/2000.
 Best 3: 0.3789 0.3912 0.4968. Live: 25/T: 2000 (1987)/E: 1941 (1928).
 {'TimeoutError': 12, 'QMMLException': 1}
