### Status of run 250 at 2019-10-24 21:06:30 ###
 250: Done. Have a good day! Runtime: 751.8/5970.0. Active evaluations: 0.
 Counted trials: 2000/2000.
 Best 3: 0.2164 0.2191 0.2214. Live: 41/T: 2000 (2000)/E: 1933 (1933).
