### Status of run 650 at 2019-08-09 03:56:23 ###
 650: Done. Have a good day! Runtime: 2694.5/4770.0. Active evaluations: 0.
 Counted trials: 2000/2000.
 Best 3: 0.1333 0.1475 0.1516. Live: 41/T: 2000 (2000)/E: 1982 (1982).
