### Status of run 650 at 2019-10-25 12:23:11 ###
 650: Done. Have a good day! Runtime: 57917.6/71970.0. Active evaluations: 0.
 Counted trials: 2000/2000.
 Best 3: 0.1587 0.1604 0.1622. Live: 41/T: 2000 (1925)/E: 1907 (1837).
 {'QMMLException': 24, 'TimeoutError': 51}
