### Status of run 160 at 2019-10-24 22:09:27 ###
 160: Done. Have a good day! Runtime: 3768.3/5970.0. Active evaluations: 0.
 Counted trials: 2000/2000.
 Best 3: 0.1780 0.1780 0.1800. Live: 41/T: 2000 (2000)/E: 1983 (1983).
