### Status of run 160 at 2019-12-06 19:15:34 ###
 160: Done. Have a good day! Runtime: 3059.2/4770.0. Active evaluations: 0.
 Counted trials: 2000/2000.
 Best 3: 0.4391 0.4428 0.5021. Live: 41/T: 2000 (2000)/E: 1888 (1888).
