### Status of run 100 at 2019-10-24 16:34:20 ###
 100: Done. Have a good day! Runtime: 2534.6/2670.0. Active evaluations: 0.
 Counted trials: 2000/2000.
 Best 3: 0.2182 0.2280 0.2332. Live: 41/T: 2000 (1988)/E: 1908 (1898).
 {'TimeoutError': 12}
