### Status of run 400 at 2019-09-28 22:08:15 ###
 400: Done. Have a good day! Runtime: 10824.1/17970.0. Active evaluations: 0.
 Counted trials: 2000/2000.
 Best 3: 0.1857 0.1865 0.1865. Live: 41/T: 2000 (2000)/E: 1671 (1671).
