### Status of run 100 at 2019-08-08 16:02:14 ###
 100: Done. Have a good day! Runtime: 652.3/1470.0. Active evaluations: 0.
 Counted trials: 2000/2000.
 Best 3: 0.3976 0.3983 0.4009. Live: 41/T: 2000 (2000)/E: 1843 (1843).
