### Status of run 100 at 2019-09-24 23:47:26 ###
 100: Done. Have a good day! Runtime: 6437.1/8970.0. Active evaluations: 0.
 Counted trials: 2000/2000.
 Best 3: 0.2993 0.2993 0.4452. Live: 41/T: 2000 (1961)/E: 1882 (1846).
 {'TimeoutError': 39}
