### Status of run 400 at 2019-10-30 06:05:05 ###
 400: Done. Have a good day! Runtime: 95946.8/119970.0. Active evaluations: 0.
 Counted trials: 2000/2000.
 Best 3: 0.1863 0.1882 0.1895. Live: 41/T: 2000 (1536)/E: 1991 (1529).
 {'TimeoutError': 464}
