### Status of run 1000 at 2019-10-24 22:22:41 ###
 1000: Done. Have a good day! Runtime: 3285.0/14370.0. Active evaluations: 0.
 Counted trials: 2000/2000.
 Best 3: 0.1596 0.1608 0.1611. Live: 41/T: 2000 (2000)/E: 1924 (1924).
