### Status of run 400 at 2019-10-17 15:36:01 ###
 400: Done. Have a good day! Runtime: 3042.2/23970.0. Active evaluations: 0.
 Counted trials: 2000/2000.
 Best 3: 0.1886 0.1925 0.1931. Live: 41/T: 2000 (1821)/E: 1903 (1733).
 {'QMMLException': 147, 'TimeoutError': 32}
