### Status of run 4000 at 2020-01-06 21:05:17 ###
 4000: Done. Have a good day! Runtime: 9496.5/11970.0. Active evaluations: 0.
 Counted trials: 2000/2000.
 Best 3: 0.0881 0.0889 0.0899. Live: 31/T: 2000 (2000)/E: 1920 (1920).
