### Status of run 650 at 2020-02-01 19:56:56 ###
 650: Done. Have a good day! Runtime: 1172.3/8970.0. Active evaluations: 0.
 Counted trials: 2000/2000.
 Best 3: 4.9315 5.3741 5.7115. Live: 41/T: 2000 (2000)/E: 1972 (1972).
