### Status of run 100 at 2019-09-24 23:52:32 ###
 100: Done. Have a good day! Runtime: 1772.3/2670.0. Active evaluations: 0.
 Counted trials: 2000/2000.
 Best 3: 0.3502 0.3561 0.4012. Live: 41/T: 2000 (2000)/E: 1975 (1975).
