

 ### Table for loss mae (meV/cell; mean (std)) ### 
              mae! sizes: 100             160             250             400             650             1000            1600            
             ds_soap_gto: 170.23 ( 18.82) 147.57 ( 10.18) 131.45 ( 10.38) 140.46 (  5.53) 130.78 (  7.31) 114.34 (  3.81) 108.32 (  3.48) 
            ds_soap_poly: 156.09 ( 12.48) 158.09 ( 13.67) 132.04 (  8.74) 132.67 (  5.94) 123.12 (  6.10) 115.04 (  2.96) 108.59 (  2.97) 
                     m23: 207.15 ( 20.96) 168.12 (  9.04) 174.85 ( 12.17) 144.51 (  7.88) 123.23 (  7.34) 115.98 (  3.21) 109.25 (  4.24) 
                      m2: 239.84 ( 29.79) 184.96 ( 13.56) 155.85 ( 10.41) 134.74 (  6.42) 128.89 (  4.02) 121.19 (  3.72) 114.18 (  4.15) 
                    sf23: 188.88 ( 17.71) 150.02 (  7.31) 154.43 (  8.92) 147.49 (  8.90) 123.98 (  5.51) 116.45 (  3.20) 112.08 (  2.81) 
                     sf2: 176.62 ( 17.70) 151.05 (  5.91) 148.20 (  9.14) 137.82 (  9.24) 130.98 (  6.36) 116.05 (  3.40) 109.29 (  4.09) 
