### Status of run 4000 at 2019-08-09 12:12:43 ###
 4000: Done. Have a good day! Runtime: 30975.9/95970.0. Active evaluations: 0.
 Counted trials: 2000/2000.
 Best 3: 0.0740 0.0741 0.0742. Live: 31/T: 2000 (1851)/E: 1926 (1784).
 {'QMMLException': 149}
