### Status of run 400 at 2019-09-12 16:38:05 ###
 400: Done. Have a good day! Runtime: 0.2/77970.0. Active evaluations: 0.
 Counted trials: 2000/2000.
 Best 3: 0.5293 0.5314 0.5314. Live: 41/T: 2000 (1622)/E: 1871 (1516).
 {'QMMLException': 335, 'TimeoutError': 43}
