### Status of run 1600 at 2019-09-12 11:16:31 ###
 1600: Done. Have a good day! Runtime: 202789.0/299970.0. Active evaluations: 0.
 Counted trials: 2000/2000.
 Best 3: 0.6427 0.6437 0.6448. Live: 31/T: 2000 (1776)/E: 2000 (1776).
 {'QMMLException': 224}
