### Status of run 100 at 2019-09-24 07:15:43 ###
 100: Done. Have a good day! Runtime: 141.4/1770.0. Active evaluations: 0.
 Counted trials: 2000/2000.
 Best 3: 0.2538 0.2557 0.2655. Live: 41/T: 2000 (2000)/E: 1951 (1951).
