### Status of run 4000 at 2019-08-09 16:06:21 ###
 4000: Done. Have a good day! Runtime: 85088.2/119970.0. Active evaluations: 0.
 Counted trials: 2000/2000.
 Best 3: 0.0549 0.0555 0.0555. Live: 31/T: 2000 (1632)/E: 1968 (1606).
 {'QMMLException': 368}
