pa / ps / pa-ps
## SF2
[31.72444843 19.43971218 14.34374276  8.42563736  5.83519537  4.18121798]
[9.89737804 7.81962581 5.70192752 4.5503866  2.81708611 2.0283998 ]
[21.82707038 11.62008637  8.64181524  3.87525076  3.01810926  2.15281818]
## SF23
[35.13212819 18.62914993 13.24663626  7.80629484  4.63718773  3.72329153]
[10.86266851  8.39034286  4.63485708  2.87906054  1.76480715  1.28961908]
[24.26945968 10.23880707  8.61177918  4.9272343   2.87238058  2.43367245]
## MBTR12
[12.51670097  9.65334433  6.84807186  5.09848161  3.66234439  2.78411275]
[12.47361936  8.57920412  6.70242574  5.2860512   3.93542564  2.62105905]
[ 0.04308161  1.0741402   0.14564611 -0.18756959 -0.27308125  0.16305369]
## MBTR123
[12.21534903  9.18319176  5.13159409  4.56846766  3.00825771  2.1413728 ]
[13.40542696  9.50375261  7.53395845  3.39521331  3.72627363  1.59842051]
[-1.19007792 -0.32056085 -2.40236436  1.17325435 -0.71801591  0.5429523 ]
## SOAP
[36.36458935 24.94255868 15.39289678 12.70870769  8.48975424  5.81487951]
[9.18582749 5.16564006 3.23684267 3.7360368  1.55021677 1.7141993 ]
[27.17876186 19.77691862 12.15605411  8.97267089  6.93953747  4.1006802 ]
