### Status of run 1000 at 2019-09-10 16:01:36 ###
 1000: Done. Have a good day! Runtime: 54009.9/83970.0. Active evaluations: 0.
 Counted trials: 2000/2000.
 Best 3: 0.5125 0.5125 0.5147. Live: 41/T: 2000 (1917)/E: 1740 (1664).
 {'QMMLException': 83}
