### Status of run 10000 at 2020-01-07 22:48:47 ###
 10000: Done. Have a good day! Runtime: 103111.8/119970.0. Active evaluations: 0.
 Counted trials: 2000/2000.
 Best 3: 0.0781 0.0788 0.0789. Live: 21/T: 2000 (1998)/E: 1937 (1935).
 {'QMMLException': 2}
