### Status of run 1600 at 2020-01-30 07:19:11 ###
 1600: Done. Have a good day! Runtime: 243375.6/341970.0. Active evaluations: 0.
 Counted trials: 2000/2000.
 Best 3: 0.0106 0.0107 0.0107. Live: 25/T: 2000 (1851)/E: 1972 (1826).
 {'TimeoutError': 126, 'QMMLException': 23}
