### Status of run 650 at 2020-01-09 12:08:18 ###
 650: Done. Have a good day! Runtime: 511.1/1470.0. Active evaluations: 0.
 Counted trials: 2000/2000.
 Best 3: 6.2282 6.2282 6.4182. Live: 41/T: 2000 (2000)/E: 1924 (1924).
