### Status of run 10000 at 2019-10-23 19:38:25 ###
 10000: Done. Have a good day! Runtime: 24787.6/345570.0. Active evaluations: 0.
 Counted trials: 2000/2000.
 Best 3: 0.9828 1.0068 1.0234. Live: 31/T: 2000 (1999)/E: 1946 (1945).
 {'TimeoutError': 1}
