### Status of run 650 at 2019-10-02 03:49:53 ###
 650: Done. Have a good day! Runtime: 60560.5/71970.0. Active evaluations: 0.
 Counted trials: 2000/2000.
 Best 3: 0.2193 0.2255 0.2255. Live: 41/T: 2000 (1843)/E: 1912 (1760).
 {'QMMLException': 107, 'TimeoutError': 50}
