### Status of run 650 at 2020-01-06 18:12:32 ###
 650: Done. Have a good day! Runtime: 146.5/570.0. Active evaluations: 0.
 Counted trials: 2000/2000.
 Best 3: 0.1476 0.1476 0.1476. Live: 41/T: 2000 (2000)/E: 1869 (1869).
