

 ### Table for loss rmse (kcal/mol; mean (std)) ### 
             rmse! sizes: 100             250             650             1600            4000            10000           
                  sf2_ps:   9.63 (  0.93)   7.73 (  0.53)   5.74 (  0.17)   4.10 (  0.35)   2.80 (  0.08)   1.98 (  0.03) 
                 sf23_ps:  11.85 (  1.09)   6.68 (  0.52)   4.63 (  0.33)   2.88 (  0.12)   1.76 (  0.07)   1.29 (  0.05) 
                 soap_ps:  10.48 (  1.06)   5.49 (  0.67)   3.24 (  0.29)   3.41 (  0.81)   1.55 (  0.06)   1.19 (  0.04) 
                   m2_ps:  12.07 (  1.54)   9.46 (  0.93)   6.93 (  0.20)   5.26 (  0.74)   3.52 (  0.07)   2.58 (  0.06) 
                  m23_ps:  12.17 (  1.63)   8.59 (  0.50)   4.50 (  0.14)   3.26 (  0.19)   2.56 (  0.08)   1.52 (  0.05) 
