### Status of run 160 at 2019-12-25 00:50:44 ###
 160: Done. Have a good day! Runtime: 145307.8/341970.0. Active evaluations: 0.
 Counted trials: 2000/2000.
 Best 3: 0.5623 0.5624 0.5636. Live: 41/T: 2000 (1759)/E: 1850 (1626).
 {'TimeoutError': 241}
