### Status of run 400 at 2019-09-28 23:15:12 ###
 400: Done. Have a good day! Runtime: 16924.0/23970.0. Active evaluations: 0.
 Counted trials: 2000/2000.
 Best 3: 0.1676 0.1676 0.1912. Live: 41/T: 2000 (2000)/E: 1955 (1955).
