### Status of run 400 at 2019-09-08 19:50:28 ###
 400: Done. Have a good day! Runtime: 19700.5/23970.0. Active evaluations: 0.
 Counted trials: 2000/2000.
 Best 3: 0.5233 0.5258 0.5348. Live: 41/T: 2000 (1815)/E: 1929 (1750).
 {'QMMLException': 158, 'TimeoutError': 27}
