### Status of run 1600 at 2019-10-05 07:41:19 ###
 1600: Done. Have a good day! Runtime: 147031.7/179970.0. Active evaluations: 0.
 Counted trials: 2000/2000.
 Best 3: 0.1162 0.1174 0.1179. Live: 31/T: 2000 (2000)/E: 1946 (1946).
