### Status of run 650 at 2019-10-24 21:27:27 ###
 650: Done. Have a good day! Runtime: 2008.6/7170.0. Active evaluations: 0.
 Counted trials: 2000/2000.
 Best 3: 0.1783 0.1911 0.1915. Live: 41/T: 2000 (2000)/E: 1910 (1910).
