### Status of run 250 at 2019-08-05 19:59:20 ###
 250: Done. Have a good day! Runtime: 741.4/1170.0. Active evaluations: 0.
 Counted trials: 2000/2000.
 Best 3: 0.1955 0.1968 0.1981. Live: 41/T: 2000 (2000)/E: 1978 (1978).
