### Status of run 1600 at 2019-12-06 16:28:17 ###
 1600: Done. Have a good day! Runtime: 8662.3/59970.0. Active evaluations: 0.
 Counted trials: 2000/2000.
 Best 3: 0.2263 0.2263 0.2295. Live: 31/T: 2000 (2000)/E: 1865 (1865).
