### Status of run 1000 at 2019-10-09 17:33:55 ###
 1000: Done. Have a good day! Runtime: 21174.1/119970.0. Active evaluations: 0.
 Counted trials: 2000/2000.
 Best 3: 0.1875 0.1875 0.1877. Live: 41/T: 2000 (1751)/E: 1892 (1654).
 {'QMMLException': 192, 'TimeoutError': 57}
