### Status of run 1000 at 2019-12-31 15:40:29 ###
 1000: Done. Have a good day! Runtime: 82910.1/341970.0. Active evaluations: 0.
 Counted trials: 2000/2000.
 Best 3: 0.1862 0.1862 0.1967. Live: 35/T: 2000 (1782)/E: 1957 (1743).
 {'TimeoutError': 218}
