### Status of run 100 at 2019-09-24 21:23:46 ###
 100: Done. Have a good day! Runtime: 1652.7/2670.0. Active evaluations: 0.
 Counted trials: 2000/2000.
 Best 3: 0.2691 0.2885 0.2928. Live: 41/T: 2000 (1995)/E: 1922 (1917).
 {'TimeoutError': 5}
