### Status of run 10000 at 2019-11-02 18:02:37 ###
 10000: Done. Have a good day! Runtime: 361252.0/599970.0. Active evaluations: 0.
 Counted trials: 2000/2000.
 Best 3: 1.5478 1.6172 1.7805. Live: 25/T: 2000 (1988)/E: 1926 (1914).
 {'TimeoutError': 10, 'QMMLException': 2}
