### Status of run 400 at 2019-12-06 00:46:27 ###
 400: Done. Have a good day! Runtime: 3739.6/10770.0. Active evaluations: 0.
 Counted trials: 2000/2000.
 Best 3: 0.3468 0.3523 0.3606. Live: 41/T: 2000 (2000)/E: 1878 (1878).
