### Status of run 10000 at 2019-11-03 14:14:12 ###
 10000: Done. Have a good day! Runtime: 433953.3/599970.0. Active evaluations: 0.
 Counted trials: 2000/2000.
 Best 3: 1.3462 1.3732 1.3811. Live: 25/T: 2000 (1986)/E: 1930 (1916).
 {'TimeoutError': 14}
