### Status of run 1600 at 2019-10-24 23:01:57 ###
 1600: Done. Have a good day! Runtime: 5641.5/23970.0. Active evaluations: 0.
 Counted trials: 2000/2000.
 Best 3: 0.1374 0.1449 0.1468. Live: 31/T: 2000 (2000)/E: 1951 (1951).
