### Status of run 4000 at 2019-06-26 18:34:37 ###
 4000: Done. Have a good day! Runtime: 110990.1/419970.0. Active evaluations: 0.
 Counted trials: 2000/2000.
 Best 3: 1.5997 1.8588 3.0272. Live: 25/T: 2000 (1996)/E: 1929 (1925).
 {'QMMLException': 4}
