### Status of run 650 at 2019-09-29 04:45:05 ###
 650: Done. Have a good day! Runtime: 36743.3/41970.0. Active evaluations: 0.
 Counted trials: 2000/2000.
 Best 3: 0.1216 0.1242 0.1242. Live: 41/T: 2000 (2000)/E: 1959 (1959).
