### Status of run 1000 at 2019-10-27 07:30:14 ###
 1000: Done. Have a good day! Runtime: 56013.8/83970.0. Active evaluations: 0.
 Counted trials: 2000/2000.
 Best 3: 0.1344 0.1352 0.1352. Live: 41/T: 2000 (2000)/E: 1707 (1707).
