### Status of run 10000 at 2019-09-03 15:35:59 ###
 10000: Done. Have a good day! Runtime: 19771.4/345570.0. Active evaluations: 0.
 Counted trials: 2000/2000.
 Best 3: 0.0425 0.0433 0.0435. Live: 15/T: 2000 (1552)/E: 1970 (1533).
 {'QMMLException': 447, 'TimeoutError': 1}
