### Status of run 400 at 2019-11-03 20:39:53 ###
 400: Done. Have a good day! Runtime: 3527.5/23970.0. Active evaluations: 0.
 Counted trials: 2000/2000.
 Best 3: 0.1516 0.1529 0.1560. Live: 41/T: 2000 (1965)/E: 1923 (1889).
 {'TimeoutError': 35}
