### Status of run 100 at 2019-10-25 20:22:23 ###
 100: Done. Have a good day! Runtime: 36235.4/59970.0. Active evaluations: 0.
 Counted trials: 2000/2000.
 Best 3: 0.2624 0.2831 0.2849. Live: 41/T: 2000 (842)/E: 1992 (839).
 {'TimeoutError': 1158}
