### Status of run 250 at 2019-07-14 18:19:55 ###
 250: Done. Have a good day! Runtime: 281.5/1470.0. Active evaluations: 0.
 Counted trials: 2000/2000.
 Best 3: 7.7016 8.1738 8.1738. Live: 41/T: 2000 (2000)/E: 1990 (1990).
