### Status of run 100 at 2019-06-25 13:43:06 ###
 100: Done. Have a good day! Runtime: 248.4/1470.0. Active evaluations: 0.
 Counted trials: 2000/2000.
 Best 3: 11.8297 12.4523 12.7862. Live: 41/T: 2000 (2000)/E: 1998 (1998).
