### Status of run 1600 at 2020-01-09 11:25:47 ###
 1600: Done. Have a good day! Runtime: 1335.9/7170.0. Active evaluations: 0.
 Counted trials: 2000/2000.
 Best 3: 4.6667 4.6897 4.7562. Live: 41/T: 2000 (2000)/E: 1797 (1797).
