### Status of run 650 at 2019-07-18 18:04:16 ###
 650: Done. Have a good day! Runtime: 5032.2/21570.0. Active evaluations: 0.
 Counted trials: 2000/2000.
 Best 3: 4.7487 4.8120 4.8259. Live: 33/T: 2000 (2000)/E: 1964 (1964).
