### Status of run 400 at 2019-10-30 06:52:53 ###
 400: Done. Have a good day! Runtime: 98815.6/119970.0. Active evaluations: 0.
 Counted trials: 2000/2000.
 Best 3: 0.1874 0.1914 0.1926. Live: 41/T: 2000 (1513)/E: 1995 (1510).
 {'TimeoutError': 487}
