### Status of run 650 at 2019-09-30 11:18:45 ###
 650: Done. Have a good day! Runtime: 23873.9/35970.0. Active evaluations: 0.
 Counted trials: 2000/2000.
 Best 3: 0.1335 0.1383 0.1392. Live: 41/T: 2000 (2000)/E: 1668 (1668).
