### Status of run 250 at 2019-09-10 01:24:14 ###
 250: Done. Have a good day! Runtime: 5707.2/7170.0. Active evaluations: 0.
 Counted trials: 2000/2000.
 Best 3: 0.5357 0.5357 0.5357. Live: 41/T: 2000 (2000)/E: 1713 (1713).
