### Status of run 100 at 2019-10-24 18:33:56 ###
 100: Done. Have a good day! Runtime: 302.2/3570.0. Active evaluations: 0.
 Counted trials: 2000/2000.
 Best 3: 0.2475 0.2654 0.2755. Live: 41/T: 2000 (2000)/E: 1950 (1950).
