### Status of run 650 at 2020-01-03 02:15:59 ###
 650: Done. Have a good day! Runtime: 263002.3/341970.0. Active evaluations: 0.
 Counted trials: 2000/2000.
 Best 3: 0.0119 0.0119 0.0119. Live: 41/T: 2000 (1758)/E: 1906 (1669).
 {'TimeoutError': 242}
