### Status of run 1600 at 2020-01-09 11:32:51 ###
 1600: Done. Have a good day! Runtime: 2211.4/7170.0. Active evaluations: 0.
 Counted trials: 2000/2000.
 Best 3: 0.2140 0.2283 0.2472. Live: 41/T: 2000 (2000)/E: 1888 (1888).
