### Status of run 1600 at 2019-10-24 21:47:56 ###
 1600: Done. Have a good day! Runtime: 3456.9/11970.0. Active evaluations: 0.
 Counted trials: 2000/2000.
 Best 3: 0.1508 0.1523 0.1523. Live: 31/T: 2000 (1998)/E: 1958 (1956).
 {'QMMLException': 2}
