### Status of run 1600 at 2019-10-31 05:31:20 ###
 1600: Done. Have a good day! Runtime: 151792.1/179970.0. Active evaluations: 0.
 Counted trials: 2000/2000.
 Best 3: 0.1188 0.1188 0.1195. Live: 31/T: 2000 (2000)/E: 1930 (1930).
