### Status of run 100 at 2019-11-01 16:49:09 ###
 100: Done. Have a good day! Runtime: 6506.1/14970.0. Active evaluations: 0.
 Counted trials: 2000/2000.
 Best 3: 0.6221 0.6620 0.6820. Live: 33/T: 2000 (2000)/E: 1938 (1938).
