### Status of run 650 at 2019-09-19 17:54:40 ###
 650: Done. Have a good day! Runtime: 126618.1/239970.0. Active evaluations: 0.
 Counted trials: 2000/2000.
 Best 3: 0.7282 0.7366 0.7390. Live: 37/T: 2000 (1869)/E: 1963 (1833).
 {'TimeoutError': 122, 'QMMLException': 9}
