### Status of run 100 at 2019-09-25 05:24:54 ###
 100: Done. Have a good day! Runtime: 6817.7/8970.0. Active evaluations: 0.
 Counted trials: 2000/2000.
 Best 3: 0.2310 0.2310 0.2341. Live: 41/T: 2000 (1960)/E: 1845 (1809).
 {'TimeoutError': 40}
