### Status of run 250 at 2019-10-24 21:06:31 ###
 250: Done. Have a good day! Runtime: 758.3/5970.0. Active evaluations: 0.
 Counted trials: 2000/2000.
 Best 3: 0.2160 0.2181 0.2216. Live: 41/T: 2000 (2000)/E: 1944 (1944).
