### Status of run 100 at 2019-10-24 19:13:43 ###
 100: Done. Have a good day! Runtime: 1968.4/2670.0. Active evaluations: 0.
 Counted trials: 2000/2000.
 Best 3: 0.1992 0.2122 0.2188. Live: 41/T: 2000 (2000)/E: 1976 (1976).
