### Status of run 250 at 2019-10-27 08:48:18 ###
 250: Done. Have a good day! Runtime: 60705.1/83970.0. Active evaluations: 0.
 Counted trials: 2000/2000.
 Best 3: 0.2260 0.2299 0.2312. Live: 41/T: 2000 (1552)/E: 1992 (1547).
 {'TimeoutError': 448}
