### Status of run 650 at 2019-12-06 23:31:11 ###
 650: Done. Have a good day! Runtime: 12553.7/14370.0. Active evaluations: 0.
 Counted trials: 2000/2000.
 Best 3: 0.7451 0.7464 0.7496. Live: 41/T: 2000 (2000)/E: 1882 (1882).
