### Status of run 250 at 2019-11-01 23:51:45 ###
 250: Done. Have a good day! Runtime: 30585.7/59970.0. Active evaluations: 0.
 Counted trials: 2000/2000.
 Best 3: 0.3015 0.3631 0.3708. Live: 33/T: 2000 (2000)/E: 1955 (1955).
