### Status of run 650 at 2020-01-09 11:25:11 ###
 650: Done. Have a good day! Runtime: 499.8/1470.0. Active evaluations: 0.
 Counted trials: 2000/2000.
 Best 3: 0.3664 0.3940 0.3947. Live: 41/T: 2000 (2000)/E: 1935 (1935).
