### Status of run 10000 at 2019-08-16 18:17:09 ###
 10000: Done. Have a good day! Runtime: 195398.9/345570.0. Active evaluations: 0.
 Counted trials: 2000/2000.
 Best 3: 0.0472 0.0473 0.0487. Live: 21/T: 2000 (1476)/E: 1995 (1473).
 {'QMMLException': 524}
