### Status of run 1000 at 2019-09-26 02:10:05 ###
 1000: Done. Have a good day! Runtime: 56559.1/83970.0. Active evaluations: 0.
 Counted trials: 2000/2000.
 Best 3: 0.1911 0.1911 0.1911. Live: 41/T: 2000 (1997)/E: 1684 (1681).
 {'QMMLException': 3}
