### Status of run 100 at 2019-12-06 13:43:51 ###
 100: Done. Have a good day! Runtime: 92466.2/143970.0. Active evaluations: 0.
 Counted trials: 2000/2000.
 Best 3: 0.8531 0.8534 0.8656. Live: 41/T: 2000 (1751)/E: 1922 (1676).
 {'TimeoutError': 249}
