### Status of run 400 at 2019-10-17 17:31:40 ###
 400: Done. Have a good day! Runtime: 3789.7/23970.0. Active evaluations: 0.
 Counted trials: 2000/2000.
 Best 3: 0.1880 0.1926 0.1936. Live: 41/T: 2000 (1795)/E: 1893 (1698).
 {'QMMLException': 172, 'TimeoutError': 33}
