### Status of run 1000 at 2019-12-07 01:08:52 ###
 1000: Done. Have a good day! Runtime: 18414.7/29970.0. Active evaluations: 0.
 Counted trials: 2000/2000.
 Best 3: 0.1940 0.1940 0.1940. Live: 41/T: 2000 (2000)/E: 1877 (1877).
