### Status of run 650 at 2019-10-30 23:56:23 ###
 650: Done. Have a good day! Runtime: 160213.7/179970.0. Active evaluations: 0.
 Counted trials: 2000/2000.
 Best 3: 0.1920 0.1937 0.1945. Live: 41/T: 2000 (1521)/E: 1995 (1518).
 {'TimeoutError': 479}
