### Status of run 10000 at 2019-10-20 08:35:12 ###
 10000: Done. Have a good day! Runtime: 145500.9/604770.0. Active evaluations: 0.
 Counted trials: 2000/2000.
 Best 3: 0.0462 0.0474 0.0475. Live: 13/T: 2000 (1914)/E: 1988 (1903).
 {'TimeoutError': 82, 'QMMLException': 4}
