### Status of run 650 at 2019-08-24 15:28:01 ###
 650: Done. Have a good day! Runtime: 10863.1/35970.0. Active evaluations: 0.
 Counted trials: 2000/2000.
 Best 3: 0.1237 0.1364 0.1376. Live: 33/T: 2000 (2000)/E: 1961 (1961).
