### Status of run 1600 at 2019-10-31 23:21:56 ###
 1600: Done. Have a good day! Runtime: 216028.6/299970.0. Active evaluations: 0.
 Counted trials: 2000/2000.
 Best 3: 0.1232 0.1263 0.1279. Live: 31/T: 2000 (2000)/E: 1999 (1999).
