### Status of run 1600 at 2020-01-17 02:46:43 ###
 1600: Done. Have a good day! Runtime: 300961.0/341970.0. Active evaluations: 0.
 Counted trials: 2000/2000.
 Best 3: 0.2273 0.2334 0.2492. Live: 25/T: 2000 (1861)/E: 1967 (1832).
 {'TimeoutError': 139}
