### Status of run 10000 at 2020-01-11 06:12:03 ###
 10000: Done. Have a good day! Runtime: 151138.6/269970.0. Active evaluations: 0.
 Counted trials: 2000/2000.
 Best 3: 1.5669 1.6248 1.6248. Live: 31/T: 2000 (2000)/E: 1956 (1956).
