### Status of run 10000 at 2019-10-23 14:57:40 ###
 10000: Done. Have a good day! Runtime: 7942.6/345570.0. Active evaluations: 0.
 Counted trials: 2000/2000.
 Best 3: 0.9828 1.0868 1.0986. Live: 31/T: 2000 (2000)/E: 1940 (1940).
