### Status of run 1600 at 2019-11-11 17:30:02 ###
 1600: Done. Have a good day! Runtime: 69329.7/341970.0. Active evaluations: 0.
 Counted trials: 2000/2000.
 Best 3: 0.1389 0.1451 0.1465. Live: 31/T: 2000 (892)/E: 1997 (891).
 {'TimeoutError': 1107, 'QMMLException': 1}
