### Status of run 100 at 2019-08-05 18:04:44 ###
 100: Done. Have a good day! Runtime: 102.5/1470.0. Active evaluations: 0.
 Counted trials: 2001/2000.
 Best 3: 0.4030 0.4031 0.4035. Live: 41/T: 2001 (2001)/E: 1867 (1867).
