### Status of run 400 at 2019-12-10 02:39:05 ###
 400: Done. Have a good day! Runtime: 29446.0/341970.0. Active evaluations: 0.
 Counted trials: 2000/2000.
 Best 3: 0.3387 0.3672 0.3731. Live: 41/T: 2000 (1803)/E: 1862 (1669).
 {'TimeoutError': 197}
