### Status of run 1600 at 2019-09-27 05:35:54 ###
 1600: Done. Have a good day! Runtime: 150715.0/179970.0. Active evaluations: 0.
 Counted trials: 2000/2000.
 Best 3: 0.1825 0.1841 0.1841. Live: 31/T: 2000 (1992)/E: 1935 (1927).
 {'QMMLException': 8}
