### Status of run 650 at 2020-01-09 05:50:06 ###
 650: Done. Have a good day! Runtime: 2412.6/35970.0. Active evaluations: 0.
 Counted trials: 2000/2000.
 Best 3: 0.1064 0.1070 0.1132. Live: 41/T: 2000 (2000)/E: 1976 (1976).
