### Status of run 1000 at 2019-09-11 00:41:38 ###
 1000: Done. Have a good day! Runtime: 78441.0/119970.0. Active evaluations: 0.
 Counted trials: 2000/2000.
 Best 3: 0.5210 0.5263 0.5274. Live: 41/T: 2000 (1892)/E: 1976 (1868).
 {'QMMLException': 108}
