### Status of run 1000 at 2019-10-30 05:41:04 ###
 1000: Done. Have a good day! Runtime: 80479.7/119970.0. Active evaluations: 0.
 Counted trials: 2000/2000.
 Best 3: 0.1423 0.1426 0.1429. Live: 41/T: 2000 (2000)/E: 1978 (1978).
