### Status of run 100 at 2019-10-24 19:38:09 ###
 100: Done. Have a good day! Runtime: 1879.2/2670.0. Active evaluations: 0.
 Counted trials: 2000/2000.
 Best 3: 0.2161 0.2187 0.2245. Live: 41/T: 2000 (2000)/E: 1979 (1979).
